<svg xmlns="http://www.w3.org/2000/svg" viewBox="0 0 22 14" width="22" height="14">
	<style>
		tspan { white-space:pre }
		.shp0 { fill: #0071a8 } 
	</style>
	<g id="1">
		<path id="Rectangle 53 copy" class="shp0" d="M0.11,2.91l10.89,10.89l1.98,-1.98l-10.89,-10.89zM9.02,11.82l1.98,1.98l10.89,-10.89l-1.98,-1.98z" />
	</g>
</svg>